{
    "name": "winch-connector",
    "config": {
      "connector.class": "io.debezium.connector.mysql.MySqlConnector",
      "database.hostname": "winch-db",
      "database.user": "root",
      "database.password": "root",
      "database.port": "3306",
      "database.server.id": "184054",
      "database.server.name": "winch",
      "database.whitelist": "winch",
      "database.allowPublicKeyRetrieval":"true",
      "database.history.kafka.bootstrap.servers": "fast-data-dev:9092",
      "database.history.kafka.topic": "history.winch.mysql",
      "include.schema.changes": "true",
      "database.ssl.mode": "disabled"
    }
  }
